Making Formula1 data pretty for a website - Formula1 Data Analysis
…
Write circuits to Google sheets

recent_circuit_winners

# A tibble: 22 × 3
   name                           winner_name       yr
   <chr>                          <chr>          <dbl>
 1 Bahrain International Circuit  Max Verstappen  2023
 2 Jeddah Corniche Circuit        Sergio Pérez    2023
 3 Albert Park Grand Prix Circuit Max Verstappen  2023
 4 Baku City Circuit              Sergio Pérez    2023
 5 Miami International Autodrome  Max Verstappen  2023
 6 Circuit de Monaco              Max Verstappen  2023
 7 Circuit de Barcelona-Catalunya Max Verstappen  2023
 8 Circuit Gilles Villeneuve      Max Verstappen  2023
 9 Red Bull Ring                  Max Verstappen  2023
10 Silverstone Circuit            Max Verstappen  2023
# ℹ 12 more rows
…
